jsm/avaliacao1/Q4/diagrama de tempo Q4.vcd
$date
	11/03/15 03:03:49
$end
$version
	RIMS 2.7
$end
$timescale
	1 ms
$end
$scope module RIMS $end
$var wire 1 *TMR TIMER_ISR $end
$var wire 1 *A0 A0 $end
$var wire 1 *A1 A1 $end
$var wire 1 *A2 A2 $end
$var wire 1 *A3 A3 $end
$var wire 1 *A4 A4 $end
$var wire 1 *A5 A5 $end
$var wire 1 *A6 A6 $end
$var wire 1 *A7 A7 $end
$var wire 1 *B0 B0 $end
$var wire 1 *B1 B1 $end
$var wire 1 *B2 B2 $end
$var wire 1 *B3 B3 $end
$var wire 1 *B4 B4 $end
$var wire 1 *B5 B5 $end
$var wire 1 *B6 B6 $end
$var wire 1 *B7 B7 $end
$upscope $end
$enddefinitions $end

#0
$dumpvars
b0 *TMR
b0 *A0
b0 *A1
b0 *A2
b0 *A3
b0 *A4
b0 *A5
b0 *A6
b0 *A7
b0 *B0
b0 *B1
b0 *B2
b0 *B3
b0 *B4
b0 *B5
b0 *B6
b0 *B7
$end
#77
b1 *A0
#77
b1 *A0
#78
b1 *B0
#105
b0 *A0
#105
b0 *A0
#107
b0 *B0
#109
b1 *A1
#109
b1 *A1
#111
b1 *B0
#135
b0 *A1
#135
b0 *A1
#136
b0 *B0
#147
b1 *A0
#147
b1 *A0
#149
b1 *B0
#149
b1 *A1
#149
b1 *A1
#151
b0 *B0
#175
b0 *A1
#175
b0 *A1
#176
b1 *B0
#178
b0 *A0
#178
b0 *A0
#181
b0 *B0
#77
b1 *A0
#77
b1 *A0
#78
b1 *B0
#105
b0 *A0
#105
b0 *A0
#107
b0 *B0
#109
b1 *A1
#109
b1 *A1
#111
b1 *B0
#135
b0 *A1
#135
b0 *A1
#136
b0 *B0
#147
b1 *A0
#147
b1 *A0
#149
b1 *B0
#149
b1 *A1
#149
b1 *A1
#151
b0 *B0
#175
b0 *A1
#175
b0 *A1
#176
b1 *B0
#178
b0 *A0
#178
b0 *A0
#181
b0 *B0
